EESchema Schematic File Version 4
EELAYER 30 0
EELAYER END
$Descr A4 11693 8268
encoding utf-8
Sheet 1 1
Title ""
Date ""
Rev ""
Comp ""
Comment1 ""
Comment2 ""
Comment3 ""
Comment4 ""
$EndDescr
$Comp
L power:GND #PWR0101
U 1 1 5FDB0B0D
P 8400 2800
F 0 "#PWR0101" H 8400 2550 50  0001 C CNN
F 1 "GND" H 8405 2627 50  0000 C CNN
F 2 "" H 8400 2800 50  0001 C CNN
F 3 "" H 8400 2800 50  0001 C CNN
	1    8400 2800
	1    0    0    -1  
$EndComp
Wire Wire Line
	8400 2800 8400 2700
$Comp
L power:+5V #PWR0102
U 1 1 5FDB125E
P 9850 1900
F 0 "#PWR0102" H 9850 1750 50  0001 C CNN
F 1 "+5V" H 9865 2073 50  0000 C CNN
F 2 "" H 9850 1900 50  0001 C CNN
F 3 "" H 9850 1900 50  0001 C CNN
	1    9850 1900
	1    0    0    -1  
$EndComp
$Comp
L Device:R R4
U 1 1 5FDB1B60
P 9500 2000
F 0 "R4" V 9293 2000 50  0000 C CNN
F 1 "R" V 9384 2000 50  0000 C CNN
F 2 "Resistor_SMD:R_0603_1608Metric_Pad0.98x0.95mm_HandSolder" V 9430 2000 50  0001 C CNN
F 3 "~" H 9500 2000 50  0001 C CNN
	1    9500 2000
	0    1    1    0   
$EndComp
Wire Wire Line
	9000 2000 9350 2000
Text GLabel 9850 2000 2    50   Input ~ 0
PSON
Wire Wire Line
	9850 2000 9650 2000
$Comp
L power:+5VA #PWR0103
U 1 1 5FDB37C3
P 8400 1450
F 0 "#PWR0103" H 8400 1300 50  0001 C CNN
F 1 "+5VA" H 10750 2500 50  0000 C CNN
F 2 "" H 8400 1450 50  0001 C CNN
F 3 "" H 8400 1450 50  0001 C CNN
	1    8400 1450
	1    0    0    -1  
$EndComp
$Comp
L MCU_Microchip_ATmega:ATmega328-AU U1
U 1 1 5FDBE78D
P 3450 2600
F 0 "U1" H 3450 1011 50  0000 C CNN
F 1 "ATmega328-AU" H 3450 920 50  0000 C CNN
F 2 "Package_QFP:TQFP-32_7x7mm_P0.8mm" H 3450 2600 50  0001 C CIN
F 3 "http://ww1.microchip.com/downloads/en/DeviceDoc/ATmega328_P%20AVR%20MCU%20with%20picoPower%20Technology%20Data%20Sheet%2040001984A.pdf" H 3450 2600 50  0001 C CNN
	1    3450 2600
	1    0    0    -1  
$EndComp
$Comp
L MCU_Microchip_ATtiny:ATtiny85-20PU U2
U 1 1 5FDBF47E
P 8400 2100
F 0 "U2" H 7871 2146 50  0000 R CNN
F 1 "ATtiny85-20PU" H 7871 2055 50  0000 R CNN
F 2 "Package_DIP:DIP-8_W7.62mm" H 8400 2100 50  0001 C CIN
F 3 "http://ww1.microchip.com/downloads/en/DeviceDoc/atmel-2586-avr-8-bit-microcontroller-attiny25-attiny45-attiny85_datasheet.pdf" H 8400 2100 50  0001 C CNN
	1    8400 2100
	1    0    0    -1  
$EndComp
$Comp
L power:GND #PWR0104
U 1 1 5FDC0D43
P 3450 4400
F 0 "#PWR0104" H 3450 4150 50  0001 C CNN
F 1 "GND" H 3455 4227 50  0000 C CNN
F 2 "" H 3450 4400 50  0001 C CNN
F 3 "" H 3450 4400 50  0001 C CNN
	1    3450 4400
	1    0    0    -1  
$EndComp
Wire Wire Line
	3450 4400 3450 4100
$Comp
L power:+5V #PWR0105
U 1 1 5FDC25D8
P 3450 950
F 0 "#PWR0105" H 3450 800 50  0001 C CNN
F 1 "+5V" H 3465 1123 50  0000 C CNN
F 2 "" H 3450 950 50  0001 C CNN
F 3 "" H 3450 950 50  0001 C CNN
	1    3450 950 
	1    0    0    -1  
$EndComp
Wire Wire Line
	3450 950  3450 1000
Wire Wire Line
	3450 1000 3550 1000
Wire Wire Line
	3550 1000 3550 1100
Connection ~ 3450 1000
Wire Wire Line
	3450 1000 3450 1100
Wire Wire Line
	2850 1400 2850 1000
Wire Wire Line
	2850 1000 3450 1000
$Comp
L power:GND #PWR0106
U 1 1 5FDC953C
P 1500 1250
F 0 "#PWR0106" H 1500 1000 50  0001 C CNN
F 1 "GND" H 1505 1077 50  0000 C CNN
F 2 "" H 1500 1250 50  0001 C CNN
F 3 "" H 1500 1250 50  0001 C CNN
	1    1500 1250
	1    0    0    -1  
$EndComp
Wire Wire Line
	1500 1250 1500 1200
Text GLabel 1100 950  0    50   Input ~ 0
XTAL1
Text GLabel 2200 950  2    50   Input ~ 0
XTAL2
Text GLabel 4300 2100 2    50   Input ~ 0
XTAL2
Text GLabel 4300 2000 2    50   Input ~ 0
XTAL1
Wire Wire Line
	4300 2000 4050 2000
Wire Wire Line
	4050 2100 4300 2100
$Comp
L Device:C C3
U 1 1 5FDCEDFB
P 1600 3650
F 0 "C3" H 1715 3696 50  0000 L CNN
F 1 "1µF" H 1715 3605 50  0000 L CNN
F 2 "Capacitor_SMD:C_0603_1608Metric" H 1638 3500 50  0001 C CNN
F 3 "~" H 1600 3650 50  0001 C CNN
	1    1600 3650
	1    0    0    -1  
$EndComp
$Comp
L Device:R R2
U 1 1 5FDCF240
P 1700 3150
F 0 "R2" H 1770 3196 50  0000 L CNN
F 1 "10K" H 1770 3105 50  0000 L CNN
F 2 "Resistor_SMD:R_0603_1608Metric" V 1630 3150 50  0001 C CNN
F 3 "~" H 1700 3150 50  0001 C CNN
	1    1700 3150
	1    0    0    -1  
$EndComp
$Comp
L power:+5V #PWR0108
U 1 1 5FDCF863
P 1700 2900
F 0 "#PWR0108" H 1700 2750 50  0001 C CNN
F 1 "+5V" H 1715 3073 50  0000 C CNN
F 2 "" H 1700 2900 50  0001 C CNN
F 3 "" H 1700 2900 50  0001 C CNN
	1    1700 2900
	1    0    0    -1  
$EndComp
Wire Wire Line
	1600 3900 1600 3800
Text GLabel 2500 3350 2    50   Input ~ 0
Reset
Text GLabel 4300 2900 2    50   Input ~ 0
Reset
Wire Wire Line
	4300 2900 4050 2900
$Comp
L power:+5V #PWR0109
U 1 1 5FDD3C44
P 2000 4700
F 0 "#PWR0109" H 2000 4550 50  0001 C CNN
F 1 "+5V" H 2015 4873 50  0000 C CNN
F 2 "" H 2000 4700 50  0001 C CNN
F 3 "" H 2000 4700 50  0001 C CNN
	1    2000 4700
	1    0    0    -1  
$EndComp
$Comp
L power:GND #PWR0110
U 1 1 5FDD3FD4
P 2000 5100
F 0 "#PWR0110" H 2000 4850 50  0001 C CNN
F 1 "GND" H 2005 4927 50  0000 C CNN
F 2 "" H 2000 5100 50  0001 C CNN
F 3 "" H 2000 5100 50  0001 C CNN
	1    2000 5100
	1    0    0    -1  
$EndComp
$Comp
L Connector_Generic:Conn_02x03_Odd_Even J2
U 1 1 5FDD61E8
P 1450 4900
F 0 "J2" H 1500 5217 50  0000 C CNN
F 1 "ICSP" H 1500 5126 50  0000 C CNN
F 2 "Connector_PinHeader_2.54mm:PinHeader_2x03_P2.54mm_Vertical" H 1450 4900 50  0001 C CNN
F 3 "~" H 1450 4900 50  0001 C CNN
	1    1450 4900
	1    0    0    -1  
$EndComp
Wire Wire Line
	1750 4800 2000 4800
Wire Wire Line
	2000 4800 2000 4700
Wire Wire Line
	2000 5100 2000 5000
Wire Wire Line
	2000 5000 1750 5000
Text GLabel 1900 4900 2    50   Input ~ 0
MOSI
Text GLabel 1150 4800 0    50   Input ~ 0
MISO
Text GLabel 1150 4900 0    50   Input ~ 0
SCK
Text GLabel 1150 5000 0    50   Input ~ 0
Reset
Wire Wire Line
	1150 5000 1250 5000
Wire Wire Line
	1150 4900 1250 4900
Wire Wire Line
	1150 4800 1250 4800
Wire Wire Line
	1750 4900 1900 4900
Text GLabel 4300 1900 2    50   Input ~ 0
SCK
Text GLabel 4300 1800 2    50   Input ~ 0
MISO
Text GLabel 4300 1700 2    50   Input ~ 0
MOSI
Wire Wire Line
	4050 1700 4300 1700
Wire Wire Line
	4050 1800 4300 1800
Wire Wire Line
	4050 1900 4300 1900
Wire Wire Line
	4050 3600 4300 3600
Text GLabel 4300 3600 2    50   Input ~ 0
Response
Text GLabel 4300 3300 2    50   Input ~ 0
Request
Text GLabel 9850 2100 2    50   Input ~ 0
Request
Text GLabel 9850 2200 2    50   Input ~ 0
Response
$Comp
L Device:R R5
U 1 1 5FDF1893
P 9500 2100
F 0 "R5" V 9293 2100 50  0000 C CNN
F 1 "R" V 9384 2100 50  0000 C CNN
F 2 "Resistor_SMD:R_0603_1608Metric_Pad0.98x0.95mm_HandSolder" V 9430 2100 50  0001 C CNN
F 3 "~" H 9500 2100 50  0001 C CNN
	1    9500 2100
	0    1    1    0   
$EndComp
$Comp
L Device:R R6
U 1 1 5FDF1A60
P 9500 2200
F 0 "R6" V 9293 2200 50  0000 C CNN
F 1 "R" V 9384 2200 50  0000 C CNN
F 2 "Resistor_SMD:R_0603_1608Metric_Pad0.98x0.95mm_HandSolder" V 9430 2200 50  0001 C CNN
F 3 "~" H 9500 2200 50  0001 C CNN
	1    9500 2200
	0    1    1    0   
$EndComp
Wire Wire Line
	9000 2100 9350 2100
Wire Wire Line
	9000 2200 9350 2200
Wire Wire Line
	9650 2100 9850 2100
Wire Wire Line
	9650 2200 9850 2200
$Comp
L Connector:Conn_01x02_Male J7
U 1 1 5FE10DE3
P 10250 3000
F 0 "J7" H 10222 2882 50  0000 R CNN
F 1 "Power Button" H 10222 2973 50  0000 R CNN
F 2 "Connector_PinHeader_2.54mm:PinHeader_1x02_P2.54mm_Vertical" H 10250 3000 50  0001 C CNN
F 3 "~" H 10250 3000 50  0001 C CNN
	1    10250 3000
	-1   0    0    1   
$EndComp
$Comp
L power:+5VA #PWR0111
U 1 1 5FE11DEF
P 9900 2800
F 0 "#PWR0111" H 9900 2650 50  0001 C CNN
F 1 "+5VA" H 9915 2973 50  0000 C CNN
F 2 "" H 9900 2800 50  0001 C CNN
F 3 "" H 9900 2800 50  0001 C CNN
	1    9900 2800
	1    0    0    -1  
$EndComp
Wire Wire Line
	9900 2800 9900 2900
Wire Wire Line
	9900 2900 10050 2900
$Comp
L Connector_Generic:Conn_02x10_Top_Bottom J6
U 1 1 5FE3C92E
P 9450 5850
F 0 "J6" H 9500 6467 50  0000 C CNN
F 1 "ATX_Conn" H 9500 6376 50  0000 C CNN
F 2 "Connector_Molex:Molex_Mini-Fit_Jr_5566-20A_2x10_P4.20mm_Vertical" H 9450 5850 50  0001 C CNN
F 3 "~" H 9450 5850 50  0001 C CNN
	1    9450 5850
	-1   0    0    -1  
$EndComp
Text GLabel 9800 6250 2    50   Input ~ 0
5VSB
Wire Wire Line
	9800 6250 9650 6250
Text GLabel 9800 3000 0    50   Input ~ 0
5VSB
Wire Wire Line
	9800 3000 10050 3000
Text GLabel 8950 5750 0    50   Input ~ 0
PSON
Wire Wire Line
	8950 5750 9150 5750
$Comp
L power:+3.3V #PWR0112
U 1 1 5FE4A868
P 9800 5450
F 0 "#PWR0112" H 9800 5300 50  0001 C CNN
F 1 "+3.3V" V 9815 5578 50  0000 L CNN
F 2 "" H 9800 5450 50  0001 C CNN
F 3 "" H 9800 5450 50  0001 C CNN
	1    9800 5450
	0    1    1    0   
$EndComp
$Comp
L power:+3.3V #PWR0113
U 1 1 5FE4B102
P 10150 5550
F 0 "#PWR0113" H 10150 5400 50  0001 C CNN
F 1 "+3.3V" V 10165 5678 50  0000 L CNN
F 2 "" H 10150 5550 50  0001 C CNN
F 3 "" H 10150 5550 50  0001 C CNN
	1    10150 5550
	0    1    1    0   
$EndComp
$Comp
L power:+3.3V #PWR0114
U 1 1 5FE4B3A2
P 8650 5450
F 0 "#PWR0114" H 8650 5300 50  0001 C CNN
F 1 "+3.3V" V 8665 5578 50  0000 L CNN
F 2 "" H 8650 5450 50  0001 C CNN
F 3 "" H 8650 5450 50  0001 C CNN
	1    8650 5450
	0    -1   -1   0   
$EndComp
$Comp
L power:+5V #PWR0115
U 1 1 5FE4BB61
P 10150 5750
F 0 "#PWR0115" H 10150 5600 50  0001 C CNN
F 1 "+5V" V 10165 5878 50  0000 L CNN
F 2 "" H 10150 5750 50  0001 C CNN
F 3 "" H 10150 5750 50  0001 C CNN
	1    10150 5750
	0    1    1    0   
$EndComp
$Comp
L power:+5V #PWR0116
U 1 1 5FE4C18B
P 10150 5950
F 0 "#PWR0116" H 10150 5800 50  0001 C CNN
F 1 "+5V" V 10165 6078 50  0000 L CNN
F 2 "" H 10150 5950 50  0001 C CNN
F 3 "" H 10150 5950 50  0001 C CNN
	1    10150 5950
	0    1    1    0   
$EndComp
$Comp
L power:+5V #PWR0117
U 1 1 5FE4C395
P 8650 6250
F 0 "#PWR0117" H 8650 6100 50  0001 C CNN
F 1 "+5V" V 8665 6378 50  0000 L CNN
F 2 "" H 8650 6250 50  0001 C CNN
F 3 "" H 8650 6250 50  0001 C CNN
	1    8650 6250
	0    -1   -1   0   
$EndComp
$Comp
L power:+5V #PWR0118
U 1 1 5FE4CE37
P 8950 6350
F 0 "#PWR0118" H 8950 6200 50  0001 C CNN
F 1 "+5V" V 8965 6478 50  0000 L CNN
F 2 "" H 8950 6350 50  0001 C CNN
F 3 "" H 8950 6350 50  0001 C CNN
	1    8950 6350
	0    -1   -1   0   
$EndComp
$Comp
L power:GND #PWR0119
U 1 1 5FE4D2D1
P 9800 5650
F 0 "#PWR0119" H 9800 5400 50  0001 C CNN
F 1 "GND" V 9805 5522 50  0000 R CNN
F 2 "" H 9800 5650 50  0001 C CNN
F 3 "" H 9800 5650 50  0001 C CNN
	1    9800 5650
	0    -1   -1   0   
$EndComp
$Comp
L power:GND #PWR0120
U 1 1 5FE4D77B
P 9800 5850
F 0 "#PWR0120" H 9800 5600 50  0001 C CNN
F 1 "GND" V 9805 5722 50  0000 R CNN
F 2 "" H 9800 5850 50  0001 C CNN
F 3 "" H 9800 5850 50  0001 C CNN
	1    9800 5850
	0    -1   -1   0   
$EndComp
$Comp
L power:GND #PWR0121
U 1 1 5FE4D966
P 9800 6050
F 0 "#PWR0121" H 9800 5800 50  0001 C CNN
F 1 "GND" V 9805 5922 50  0000 R CNN
F 2 "" H 9800 6050 50  0001 C CNN
F 3 "" H 9800 6050 50  0001 C CNN
	1    9800 6050
	0    -1   -1   0   
$EndComp
$Comp
L power:GND #PWR0122
U 1 1 5FE4DBAA
P 8650 5650
F 0 "#PWR0122" H 8650 5400 50  0001 C CNN
F 1 "GND" V 8655 5522 50  0000 R CNN
F 2 "" H 8650 5650 50  0001 C CNN
F 3 "" H 8650 5650 50  0001 C CNN
	1    8650 5650
	0    1    1    0   
$EndComp
$Comp
L power:GND #PWR0123
U 1 1 5FE4DF2D
P 8650 5850
F 0 "#PWR0123" H 8650 5600 50  0001 C CNN
F 1 "GND" V 8655 5722 50  0000 R CNN
F 2 "" H 8650 5850 50  0001 C CNN
F 3 "" H 8650 5850 50  0001 C CNN
	1    8650 5850
	0    1    1    0   
$EndComp
$Comp
L power:GND #PWR0124
U 1 1 5FE4E1AC
P 8650 6050
F 0 "#PWR0124" H 8650 5800 50  0001 C CNN
F 1 "GND" V 8655 5922 50  0000 R CNN
F 2 "" H 8650 6050 50  0001 C CNN
F 3 "" H 8650 6050 50  0001 C CNN
	1    8650 6050
	0    1    1    0   
$EndComp
$Comp
L power:GND #PWR0125
U 1 1 5FE4E46E
P 8950 5950
F 0 "#PWR0125" H 8950 5700 50  0001 C CNN
F 1 "GND" V 8955 5822 50  0000 R CNN
F 2 "" H 8950 5950 50  0001 C CNN
F 3 "" H 8950 5950 50  0001 C CNN
	1    8950 5950
	0    1    1    0   
$EndComp
$Comp
L power:+12V #PWR0126
U 1 1 5FE4EAAA
P 10150 6350
F 0 "#PWR0126" H 10150 6200 50  0001 C CNN
F 1 "+12V" V 10165 6478 50  0000 L CNN
F 2 "" H 10150 6350 50  0001 C CNN
F 3 "" H 10150 6350 50  0001 C CNN
	1    10150 6350
	0    1    1    0   
$EndComp
Wire Wire Line
	9650 5450 9800 5450
Wire Wire Line
	9650 5650 9800 5650
Wire Wire Line
	9650 5850 9800 5850
Wire Wire Line
	9650 6050 9800 6050
Wire Wire Line
	9650 5950 10150 5950
Wire Wire Line
	10150 5750 9650 5750
Wire Wire Line
	9650 5550 10150 5550
Wire Wire Line
	9650 6350 10150 6350
Wire Wire Line
	9150 6350 8950 6350
Wire Wire Line
	8650 6250 9150 6250
Wire Wire Line
	8650 6050 9150 6050
Wire Wire Line
	8950 5950 9150 5950
Wire Wire Line
	8650 5850 9150 5850
Wire Wire Line
	8650 5650 9150 5650
Wire Wire Line
	8650 5450 9150 5450
$Comp
L Device:R R3
U 1 1 5FE6917C
P 9500 1900
F 0 "R3" V 9293 1900 50  0000 C CNN
F 1 "R" V 9384 1900 50  0000 C CNN
F 2 "Resistor_SMD:R_0603_1608Metric_Pad0.98x0.95mm_HandSolder" V 9430 1900 50  0001 C CNN
F 3 "~" H 9500 1900 50  0001 C CNN
	1    9500 1900
	0    1    1    0   
$EndComp
Wire Wire Line
	9000 1900 9350 1900
Wire Wire Line
	9650 1900 9850 1900
$Comp
L Connector:Conn_01x07_Female J4
U 1 1 5FE838B6
P 6050 1400
F 0 "J4" V 6215 1380 50  0000 C CNN
F 1 "CAN" V 6124 1380 50  0000 C CNN
F 2 "Connector_PinHeader_2.54mm:PinHeader_1x07_P2.54mm_Vertical" H 6050 1400 50  0001 C CNN
F 3 "~" H 6050 1400 50  0001 C CNN
	1    6050 1400
	0    -1   -1   0   
$EndComp
Text GLabel 5850 1750 3    50   Input ~ 0
SCK
Text GLabel 5950 1750 3    50   Input ~ 0
MOSI
Text GLabel 6050 1750 3    50   Input ~ 0
MISO
Text GLabel 4300 3400 2    50   Input ~ 0
CAN_Cs
Wire Wire Line
	4050 3400 4300 3400
Wire Wire Line
	4050 3300 4300 3300
Text GLabel 4300 1600 2    50   Input ~ 0
Eth_cs
Wire Wire Line
	4050 1600 4300 1600
Text GLabel 6150 1750 3    50   Input ~ 0
CAN_Cs
$Comp
L power:GND #PWR0127
U 1 1 5FE8E408
P 6250 1850
F 0 "#PWR0127" H 6250 1600 50  0001 C CNN
F 1 "GND" H 6255 1677 50  0000 C CNN
F 2 "" H 6250 1850 50  0001 C CNN
F 3 "" H 6250 1850 50  0001 C CNN
	1    6250 1850
	1    0    0    -1  
$EndComp
$Comp
L power:+5V #PWR0128
U 1 1 5FE8E91E
P 6350 1750
F 0 "#PWR0128" H 6350 1600 50  0001 C CNN
F 1 "+5V" H 6365 1923 50  0000 C CNN
F 2 "" H 6350 1750 50  0001 C CNN
F 3 "" H 6350 1750 50  0001 C CNN
	1    6350 1750
	-1   0    0    1   
$EndComp
Wire Wire Line
	6350 1750 6350 1600
Wire Wire Line
	6250 1850 6250 1600
Wire Wire Line
	6150 1750 6150 1600
Wire Wire Line
	6050 1750 6050 1600
Wire Wire Line
	5950 1600 5950 1750
Wire Wire Line
	5850 1600 5850 1750
Text GLabel 4300 3700 2    50   Input ~ 0
CAN_Int
Wire Wire Line
	4050 3700 4300 3700
Text GLabel 5750 1750 3    50   Input ~ 0
CAN_Int
Wire Wire Line
	5750 1750 5750 1600
Wire Wire Line
	1600 3350 1600 3500
Wire Wire Line
	1700 3300 1700 3350
Connection ~ 1700 3350
Wire Wire Line
	1700 2900 1700 3000
Wire Wire Line
	1600 3350 1700 3350
$Comp
L Device:C C2
U 1 1 5FEC27B8
P 1300 3350
F 0 "C2" V 1048 3350 50  0000 C CNN
F 1 "100nF" V 1139 3350 50  0000 C CNN
F 2 "Capacitor_SMD:C_0603_1608Metric" H 1338 3200 50  0001 C CNN
F 3 "~" H 1300 3350 50  0001 C CNN
	1    1300 3350
	0    1    1    0   
$EndComp
Wire Wire Line
	1450 3350 1600 3350
Connection ~ 1600 3350
Text GLabel 700  3350 0    50   Input ~ 0
DTR
$Comp
L Device:R R1
U 1 1 5FEC8DD1
P 1100 3550
F 0 "R1" H 1170 3596 50  0000 L CNN
F 1 "1K" H 1170 3505 50  0000 L CNN
F 2 "Resistor_SMD:R_0603_1608Metric" V 1030 3550 50  0001 C CNN
F 3 "~" H 1100 3550 50  0001 C CNN
	1    1100 3550
	1    0    0    -1  
$EndComp
$Comp
L power:GND #PWR0129
U 1 1 5FECB616
P 1600 3900
F 0 "#PWR0129" H 1600 3650 50  0001 C CNN
F 1 "GND" H 1605 3727 50  0000 C CNN
F 2 "" H 1600 3900 50  0001 C CNN
F 3 "" H 1600 3900 50  0001 C CNN
	1    1600 3900
	1    0    0    -1  
$EndComp
$Comp
L Switch:SW_Push SW1
U 1 1 5FECE865
P 2200 3700
F 0 "SW1" V 2246 3652 50  0000 R CNN
F 1 "SW_Push" V 2155 3652 50  0000 R CNN
F 2 "Button_Switch_THT:SW_PUSH_6mm" H 2200 3900 50  0001 C CNN
F 3 "~" H 2200 3900 50  0001 C CNN
	1    2200 3700
	0    -1   -1   0   
$EndComp
Wire Wire Line
	1100 3400 1100 3350
Wire Wire Line
	1100 3350 1150 3350
Wire Wire Line
	1600 3900 1100 3900
Wire Wire Line
	1100 3700 1100 3900
$Comp
L Connector:Conn_01x05_Female J1
U 1 1 5FEE0D46
P 1200 6300
F 0 "J1" H 1092 5875 50  0000 C CNN
F 1 "Serial_prog" H 1092 5966 50  0000 C CNN
F 2 "Connector_PinHeader_2.54mm:PinHeader_1x05_P2.54mm_Vertical" H 1200 6300 50  0001 C CNN
F 3 "~" H 1200 6300 50  0001 C CNN
	1    1200 6300
	-1   0    0    1   
$EndComp
$Comp
L power:+5V #PWR0130
U 1 1 5FEE1688
P 1700 6000
F 0 "#PWR0130" H 1700 5850 50  0001 C CNN
F 1 "+5V" H 1715 6173 50  0000 C CNN
F 2 "" H 1700 6000 50  0001 C CNN
F 3 "" H 1700 6000 50  0001 C CNN
	1    1700 6000
	1    0    0    -1  
$EndComp
$Comp
L power:GND #PWR0131
U 1 1 5FEE1B86
P 1700 6550
F 0 "#PWR0131" H 1700 6300 50  0001 C CNN
F 1 "GND" H 1705 6377 50  0000 C CNN
F 2 "" H 1700 6550 50  0001 C CNN
F 3 "" H 1700 6550 50  0001 C CNN
	1    1700 6550
	1    0    0    -1  
$EndComp
Wire Wire Line
	1700 6550 1700 6500
Wire Wire Line
	1700 6500 1400 6500
Wire Wire Line
	1400 6100 1700 6100
Wire Wire Line
	1700 6100 1700 6000
Text GLabel 1600 6400 2    50   Input ~ 0
DTR
Text GLabel 1600 6300 2    50   Input ~ 0
Rx
Text GLabel 1600 6200 2    50   Input ~ 0
Tx
Wire Wire Line
	1400 6200 1600 6200
Wire Wire Line
	1400 6300 1600 6300
Wire Wire Line
	1400 6400 1600 6400
Text GLabel 4300 3200 2    50   Input ~ 0
Tx
Text GLabel 4300 3100 2    50   Input ~ 0
Rx
Wire Wire Line
	4050 3200 4300 3200
Wire Wire Line
	4050 3100 4300 3100
$Comp
L Connector:Conn_01x06_Female J5
U 1 1 5FF07A64
P 6050 2900
F 0 "J5" H 5942 2375 50  0000 C CNN
F 1 "Eth_Right" H 5942 2466 50  0000 C CNN
F 2 "Connector_PinHeader_2.54mm:PinHeader_1x06_P2.54mm_Vertical" H 6050 2900 50  0001 C CNN
F 3 "~" H 6050 2900 50  0001 C CNN
	1    6050 2900
	-1   0    0    1   
$EndComp
$Comp
L Connector:Conn_01x06_Female J3
U 1 1 5FF09C8E
P 5900 2800
F 0 "J3" H 5800 3250 50  0000 L CNN
F 1 "Eth_left" H 5650 3150 50  0000 L CNN
F 2 "Connector_PinHeader_2.54mm:PinHeader_1x06_P2.54mm_Vertical" H 5900 2800 50  0001 C CNN
F 3 "~" H 5900 2800 50  0001 C CNN
	1    5900 2800
	1    0    0    -1  
$EndComp
$Comp
L power:GND #PWR0132
U 1 1 5FF11040
P 5450 2650
F 0 "#PWR0132" H 5450 2400 50  0001 C CNN
F 1 "GND" V 5455 2522 50  0000 R CNN
F 2 "" H 5450 2650 50  0001 C CNN
F 3 "" H 5450 2650 50  0001 C CNN
	1    5450 2650
	0    1    1    0   
$EndComp
Wire Wire Line
	5450 2650 5450 2600
Wire Wire Line
	5450 2600 5700 2600
Wire Wire Line
	5450 2650 5450 2700
Wire Wire Line
	5450 2700 5700 2700
Connection ~ 5450 2650
Text GLabel 5450 2800 0    50   Input ~ 0
MOSI
Wire Wire Line
	5450 2800 5700 2800
Text GLabel 5450 2900 0    50   Input ~ 0
SCK
Wire Wire Line
	5450 2900 5700 2900
Text GLabel 5450 3000 0    50   Input ~ 0
Eth_cs
Wire Wire Line
	5450 3000 5700 3000
$Comp
L power:GND #PWR0133
U 1 1 5FF26624
P 6550 2600
F 0 "#PWR0133" H 6550 2350 50  0001 C CNN
F 1 "GND" V 6555 2472 50  0000 R CNN
F 2 "" H 6550 2600 50  0001 C CNN
F 3 "" H 6550 2600 50  0001 C CNN
	1    6550 2600
	0    -1   -1   0   
$EndComp
Wire Wire Line
	6550 2600 6250 2600
$Comp
L power:+3.3V #PWR0134
U 1 1 5FF2A8FD
P 6450 2750
F 0 "#PWR0134" H 6450 2600 50  0001 C CNN
F 1 "+3.3V" V 6465 2878 50  0000 L CNN
F 2 "" H 6450 2750 50  0001 C CNN
F 3 "" H 6450 2750 50  0001 C CNN
	1    6450 2750
	0    1    1    0   
$EndComp
Wire Wire Line
	6250 2700 6450 2700
Wire Wire Line
	6450 2700 6450 2750
Wire Wire Line
	6250 2800 6450 2800
Wire Wire Line
	6450 2800 6450 2750
Connection ~ 6450 2750
Text GLabel 6450 3100 2    50   Input ~ 0
MISO
Wire Wire Line
	6450 3100 6250 3100
Wire Wire Line
	2200 3500 2200 3350
Wire Wire Line
	2200 3350 2500 3350
Wire Wire Line
	1700 3350 2200 3350
Connection ~ 2200 3350
Wire Wire Line
	1600 3900 2200 3900
Connection ~ 1600 3900
Wire Wire Line
	700  3350 1100 3350
Connection ~ 1100 3350
$Comp
L Connector:Screw_Terminal_01x04 J8
U 1 1 5FE62520
P 3300 7250
F 0 "J8" V 3172 7430 50  0000 L CNN
F 1 "Output_power" V 3263 7430 50  0000 L CNN
F 2 "Connector_TE-Connectivity:TE_MATE-N-LOK_350211-1_1x04_P5.08mm_Vertical" H 3300 7250 50  0001 C CNN
F 3 "~" H 3300 7250 50  0001 C CNN
	1    3300 7250
	0    1    1    0   
$EndComp
$Comp
L power:+5V #PWR0107
U 1 1 5FE6947A
P 3200 6950
F 0 "#PWR0107" H 3200 6800 50  0001 C CNN
F 1 "+5V" H 3215 7123 50  0000 C CNN
F 2 "" H 3200 6950 50  0001 C CNN
F 3 "" H 3200 6950 50  0001 C CNN
	1    3200 6950
	1    0    0    -1  
$EndComp
$Comp
L power:+12V #PWR0135
U 1 1 5FE699C1
P 3100 6700
F 0 "#PWR0135" H 3100 6550 50  0001 C CNN
F 1 "+12V" H 3115 6873 50  0000 C CNN
F 2 "" H 3100 6700 50  0001 C CNN
F 3 "" H 3100 6700 50  0001 C CNN
	1    3100 6700
	1    0    0    -1  
$EndComp
$Comp
L power:+3.3V #PWR0136
U 1 1 5FE6B187
P 3300 6700
F 0 "#PWR0136" H 3300 6550 50  0001 C CNN
F 1 "+3.3V" H 3315 6873 50  0000 C CNN
F 2 "" H 3300 6700 50  0001 C CNN
F 3 "" H 3300 6700 50  0001 C CNN
	1    3300 6700
	1    0    0    -1  
$EndComp
$Comp
L power:GND #PWR0137
U 1 1 5FE6B66D
P 3400 6950
F 0 "#PWR0137" H 3400 6700 50  0001 C CNN
F 1 "GND" H 3405 6777 50  0000 C CNN
F 2 "" H 3400 6950 50  0001 C CNN
F 3 "" H 3400 6950 50  0001 C CNN
	1    3400 6950
	-1   0    0    1   
$EndComp
Wire Wire Line
	3100 7050 3100 6700
Wire Wire Line
	3200 7050 3200 6950
Wire Wire Line
	3300 7050 3300 6700
Wire Wire Line
	3400 7050 3400 6950
$Comp
L Connector:Screw_Terminal_01x04 J9
U 1 1 5FE9193A
P 4250 7250
F 0 "J9" V 4122 7430 50  0000 L CNN
F 1 "Output_power" V 4213 7430 50  0000 L CNN
F 2 "Connector_TE-Connectivity:TE_MATE-N-LOK_350211-1_1x04_P5.08mm_Vertical" H 4250 7250 50  0001 C CNN
F 3 "~" H 4250 7250 50  0001 C CNN
	1    4250 7250
	0    1    1    0   
$EndComp
$Comp
L power:+5V #PWR0138
U 1 1 5FE91940
P 4150 6950
F 0 "#PWR0138" H 4150 6800 50  0001 C CNN
F 1 "+5V" H 4165 7123 50  0000 C CNN
F 2 "" H 4150 6950 50  0001 C CNN
F 3 "" H 4150 6950 50  0001 C CNN
	1    4150 6950
	1    0    0    -1  
$EndComp
$Comp
L power:+12V #PWR0139
U 1 1 5FE91946
P 4050 6700
F 0 "#PWR0139" H 4050 6550 50  0001 C CNN
F 1 "+12V" H 4065 6873 50  0000 C CNN
F 2 "" H 4050 6700 50  0001 C CNN
F 3 "" H 4050 6700 50  0001 C CNN
	1    4050 6700
	1    0    0    -1  
$EndComp
$Comp
L power:+3.3V #PWR0140
U 1 1 5FE9194C
P 4250 6700
F 0 "#PWR0140" H 4250 6550 50  0001 C CNN
F 1 "+3.3V" H 4265 6873 50  0000 C CNN
F 2 "" H 4250 6700 50  0001 C CNN
F 3 "" H 4250 6700 50  0001 C CNN
	1    4250 6700
	1    0    0    -1  
$EndComp
$Comp
L power:GND #PWR0141
U 1 1 5FE91952
P 4350 6950
F 0 "#PWR0141" H 4350 6700 50  0001 C CNN
F 1 "GND" H 4355 6777 50  0000 C CNN
F 2 "" H 4350 6950 50  0001 C CNN
F 3 "" H 4350 6950 50  0001 C CNN
	1    4350 6950
	-1   0    0    1   
$EndComp
Wire Wire Line
	4050 7050 4050 6700
Wire Wire Line
	4150 7050 4150 6950
Wire Wire Line
	4250 7050 4250 6700
Wire Wire Line
	4350 7050 4350 6950
$Comp
L Connector:Screw_Terminal_01x04 J10
U 1 1 5FE97298
P 5200 7250
F 0 "J10" V 5072 7430 50  0000 L CNN
F 1 "Output_power" V 5163 7430 50  0000 L CNN
F 2 "Connector_TE-Connectivity:TE_MATE-N-LOK_350211-1_1x04_P5.08mm_Vertical" H 5200 7250 50  0001 C CNN
F 3 "~" H 5200 7250 50  0001 C CNN
	1    5200 7250
	0    1    1    0   
$EndComp
$Comp
L power:+5V #PWR0142
U 1 1 5FE9729E
P 5100 6950
F 0 "#PWR0142" H 5100 6800 50  0001 C CNN
F 1 "+5V" H 5115 7123 50  0000 C CNN
F 2 "" H 5100 6950 50  0001 C CNN
F 3 "" H 5100 6950 50  0001 C CNN
	1    5100 6950
	1    0    0    -1  
$EndComp
$Comp
L power:+12V #PWR0143
U 1 1 5FE972A4
P 5000 6700
F 0 "#PWR0143" H 5000 6550 50  0001 C CNN
F 1 "+12V" H 5015 6873 50  0000 C CNN
F 2 "" H 5000 6700 50  0001 C CNN
F 3 "" H 5000 6700 50  0001 C CNN
	1    5000 6700
	1    0    0    -1  
$EndComp
$Comp
L power:+3.3V #PWR0144
U 1 1 5FE972AA
P 5200 6700
F 0 "#PWR0144" H 5200 6550 50  0001 C CNN
F 1 "+3.3V" H 5215 6873 50  0000 C CNN
F 2 "" H 5200 6700 50  0001 C CNN
F 3 "" H 5200 6700 50  0001 C CNN
	1    5200 6700
	1    0    0    -1  
$EndComp
$Comp
L power:GND #PWR0145
U 1 1 5FE972B0
P 5300 6950
F 0 "#PWR0145" H 5300 6700 50  0001 C CNN
F 1 "GND" H 5305 6777 50  0000 C CNN
F 2 "" H 5300 6950 50  0001 C CNN
F 3 "" H 5300 6950 50  0001 C CNN
	1    5300 6950
	-1   0    0    1   
$EndComp
Wire Wire Line
	5000 7050 5000 6700
Wire Wire Line
	5100 7050 5100 6950
Wire Wire Line
	5200 7050 5200 6700
Wire Wire Line
	5300 7050 5300 6950
$Comp
L Connector:Screw_Terminal_01x04 J11
U 1 1 5FE9D128
P 6150 7250
F 0 "J11" V 6022 7430 50  0000 L CNN
F 1 "Output_power" V 6113 7430 50  0000 L CNN
F 2 "Connector_TE-Connectivity:TE_MATE-N-LOK_350211-1_1x04_P5.08mm_Vertical" H 6150 7250 50  0001 C CNN
F 3 "~" H 6150 7250 50  0001 C CNN
	1    6150 7250
	0    1    1    0   
$EndComp
$Comp
L power:+5V #PWR0146
U 1 1 5FE9D12E
P 6050 6950
F 0 "#PWR0146" H 6050 6800 50  0001 C CNN
F 1 "+5V" H 6065 7123 50  0000 C CNN
F 2 "" H 6050 6950 50  0001 C CNN
F 3 "" H 6050 6950 50  0001 C CNN
	1    6050 6950
	1    0    0    -1  
$EndComp
$Comp
L power:+12V #PWR0147
U 1 1 5FE9D134
P 5950 6700
F 0 "#PWR0147" H 5950 6550 50  0001 C CNN
F 1 "+12V" H 5965 6873 50  0000 C CNN
F 2 "" H 5950 6700 50  0001 C CNN
F 3 "" H 5950 6700 50  0001 C CNN
	1    5950 6700
	1    0    0    -1  
$EndComp
$Comp
L power:+3.3V #PWR0148
U 1 1 5FE9D13A
P 6150 6700
F 0 "#PWR0148" H 6150 6550 50  0001 C CNN
F 1 "+3.3V" H 6165 6873 50  0000 C CNN
F 2 "" H 6150 6700 50  0001 C CNN
F 3 "" H 6150 6700 50  0001 C CNN
	1    6150 6700
	1    0    0    -1  
$EndComp
$Comp
L power:GND #PWR0149
U 1 1 5FE9D140
P 6250 6950
F 0 "#PWR0149" H 6250 6700 50  0001 C CNN
F 1 "GND" H 6255 6777 50  0000 C CNN
F 2 "" H 6250 6950 50  0001 C CNN
F 3 "" H 6250 6950 50  0001 C CNN
	1    6250 6950
	-1   0    0    1   
$EndComp
Wire Wire Line
	5950 7050 5950 6700
Wire Wire Line
	6050 7050 6050 6950
Wire Wire Line
	6150 7050 6150 6700
Wire Wire Line
	6250 7050 6250 6950
$Comp
L Mechanical:MountingHole H1
U 1 1 5FE27D79
P 5850 3250
F 0 "H1" H 5950 3296 50  0000 L CNN
F 1 "MountingHole" H 5950 3205 50  0000 L CNN
F 2 "MountingHole:MountingHole_3.2mm_M3" H 5850 3250 50  0001 C CNN
F 3 "~" H 5850 3250 50  0001 C CNN
	1    5850 3250
	1    0    0    -1  
$EndComp
$Comp
L Mechanical:MountingHole H3
U 1 1 5FE2812C
P 6100 3250
F 0 "H3" H 6200 3296 50  0000 L CNN
F 1 "MountingHole" H 6200 3205 50  0000 L CNN
F 2 "MountingHole:MountingHole_3.2mm_M3" H 6100 3250 50  0001 C CNN
F 3 "~" H 6100 3250 50  0001 C CNN
	1    6100 3250
	1    0    0    -1  
$EndComp
$Comp
L Mechanical:MountingHole H2
U 1 1 5FE28401
P 5850 3450
F 0 "H2" H 5950 3496 50  0000 L CNN
F 1 "MountingHole" H 5950 3405 50  0000 L CNN
F 2 "MountingHole:MountingHole_3.2mm_M3" H 5850 3450 50  0001 C CNN
F 3 "~" H 5850 3450 50  0001 C CNN
	1    5850 3450
	1    0    0    -1  
$EndComp
$Comp
L Mechanical:MountingHole H4
U 1 1 5FE287B1
P 6100 3450
F 0 "H4" H 6200 3496 50  0000 L CNN
F 1 "MountingHole" H 6200 3405 50  0000 L CNN
F 2 "MountingHole:MountingHole_3.2mm_M3" H 6100 3450 50  0001 C CNN
F 3 "~" H 6100 3450 50  0001 C CNN
	1    6100 3450
	1    0    0    -1  
$EndComp
$Comp
L Mechanical:MountingHole H7
U 1 1 5FE2A333
P 10600 650
F 0 "H7" H 10700 696 50  0000 L CNN
F 1 "MountingHole" H 10700 605 50  0000 L CNN
F 2 "MountingHole:MountingHole_3.2mm_M3" H 10600 650 50  0001 C CNN
F 3 "~" H 10600 650 50  0001 C CNN
	1    10600 650 
	1    0    0    -1  
$EndComp
$Comp
L Mechanical:MountingHole H5
U 1 1 5FE2AB48
P 10400 650
F 0 "H5" H 10500 696 50  0000 L CNN
F 1 "MountingHole" H 10500 605 50  0000 L CNN
F 2 "MountingHole:MountingHole_3.2mm_M3" H 10400 650 50  0001 C CNN
F 3 "~" H 10400 650 50  0001 C CNN
	1    10400 650 
	1    0    0    -1  
$EndComp
$Comp
L Mechanical:MountingHole H6
U 1 1 5FE2AD7A
P 10400 850
F 0 "H6" H 10500 896 50  0000 L CNN
F 1 "MountingHole" H 10500 805 50  0000 L CNN
F 2 "MountingHole:MountingHole_3.2mm_M3" H 10400 850 50  0001 C CNN
F 3 "~" H 10400 850 50  0001 C CNN
	1    10400 850 
	1    0    0    -1  
$EndComp
$Comp
L Mechanical:MountingHole H8
U 1 1 5FE2AF41
P 10600 850
F 0 "H8" H 10700 896 50  0000 L CNN
F 1 "MountingHole" H 10700 805 50  0000 L CNN
F 2 "MountingHole:MountingHole_3.2mm_M3" H 10600 850 50  0001 C CNN
F 3 "~" H 10600 850 50  0001 C CNN
	1    10600 850 
	1    0    0    -1  
$EndComp
$Comp
L Device:Crystal_GND24_Small HSE1
U 1 1 601433A0
P 1500 950
F 0 "HSE1" H 1200 1150 50  0000 L CNN
F 1 "16MHZ" H 1200 1050 50  0000 L CNN
F 2 "Crystal:Crystal_SMD_3225-4Pin_3.2x2.5mm" H 1500 950 50  0001 C CNN
F 3 "~" H 1500 950 50  0001 C CNN
	1    1500 950 
	1    0    0    -1  
$EndComp
$Comp
L Device:R_Small R7
U 1 1 6014CC12
P 2000 950
F 0 "R7" V 1804 950 50  0000 C CNN
F 1 "220" V 1895 950 50  0000 C CNN
F 2 "Resistor_SMD:R_0603_1608Metric" H 2000 950 50  0001 C CNN
F 3 "~" H 2000 950 50  0001 C CNN
	1    2000 950 
	0    1    1    0   
$EndComp
$Comp
L Device:C_Small C1
U 1 1 60173E74
P 1250 1100
F 0 "C1" H 950 1100 50  0000 L CNN
F 1 "12pF" H 850 1000 50  0000 L CNN
F 2 "Capacitor_SMD:C_0603_1608Metric" H 1250 1100 50  0001 C CNN
F 3 "~" H 1250 1100 50  0001 C CNN
	1    1250 1100
	1    0    0    -1  
$EndComp
$Comp
L Device:C_Small C4
U 1 1 6017440E
P 1850 1100
F 0 "C4" H 1942 1146 50  0000 L CNN
F 1 "12pF" H 1942 1055 50  0000 L CNN
F 2 "Capacitor_SMD:C_0603_1608Metric" H 1850 1100 50  0001 C CNN
F 3 "~" H 1850 1100 50  0001 C CNN
	1    1850 1100
	1    0    0    -1  
$EndComp
Wire Wire Line
	1100 950  1250 950 
Wire Wire Line
	2100 950  2200 950 
Wire Wire Line
	1850 1000 1850 950 
Connection ~ 1850 950 
Wire Wire Line
	1850 950  1900 950 
Connection ~ 1500 1200
Wire Wire Line
	1500 1200 1500 1050
Wire Wire Line
	1250 1200 1500 1200
Wire Wire Line
	1250 1000 1250 950 
Connection ~ 1250 950 
Wire Wire Line
	1250 950  1400 950 
Wire Wire Line
	1500 850  1500 800 
Wire Wire Line
	1500 800  1650 800 
Wire Wire Line
	1650 800  1650 1200
Wire Wire Line
	1650 1200 1500 1200
Wire Wire Line
	1600 950  1850 950 
Wire Wire Line
	1650 1200 1850 1200
Connection ~ 1650 1200
Text Notes 700  1600 0    50   ~ 0
Cl = 2 * (CLOAD_CRYSTAL - CPARASITIC)
Text Notes 700  1750 0    50   ~ 0
Cl = 2 * (9p - 3p) = 12
Wire Notes Line
	2550 700  2550 1800
Wire Notes Line
	2550 1800 600  1800
Wire Notes Line
	600  1800 600  700 
Wire Notes Line
	600  700  2550 700 
Text Notes 600  700  0    50   ~ 0
Crystal
$Comp
L Device:C_Small C5
U 1 1 601C33D5
P 5100 1000
F 0 "C5" H 5192 1046 50  0000 L CNN
F 1 "10uF" H 5192 955 50  0000 L CNN
F 2 "Capacitor_SMD:C_0603_1608Metric" H 5100 1000 50  0001 C CNN
F 3 "~" H 5100 1000 50  0001 C CNN
	1    5100 1000
	1    0    0    -1  
$EndComp
$Comp
L Device:C_Small C6
U 1 1 601D68F8
P 5450 1000
F 0 "C6" H 5542 1046 50  0000 L CNN
F 1 "100nF" H 5542 955 50  0000 L CNN
F 2 "Capacitor_SMD:C_0603_1608Metric" H 5450 1000 50  0001 C CNN
F 3 "~" H 5450 1000 50  0001 C CNN
	1    5450 1000
	1    0    0    -1  
$EndComp
$Comp
L Device:C_Small C8
U 1 1 601E0C68
P 6250 1000
F 0 "C8" H 6342 1046 50  0000 L CNN
F 1 "100nF" H 6342 955 50  0000 L CNN
F 2 "Capacitor_SMD:C_0603_1608Metric" H 6250 1000 50  0001 C CNN
F 3 "~" H 6250 1000 50  0001 C CNN
	1    6250 1000
	1    0    0    -1  
$EndComp
$Comp
L Device:C_Small C7
U 1 1 601E107D
P 5900 1000
F 0 "C7" H 5992 1046 50  0000 L CNN
F 1 "10uF" H 5992 955 50  0000 L CNN
F 2 "Capacitor_SMD:C_0603_1608Metric" H 5900 1000 50  0001 C CNN
F 3 "~" H 5900 1000 50  0001 C CNN
	1    5900 1000
	1    0    0    -1  
$EndComp
$Comp
L Device:C_Small C9
U 1 1 601E1620
P 6700 1000
F 0 "C9" H 6792 1046 50  0000 L CNN
F 1 "10uF" H 6792 955 50  0000 L CNN
F 2 "Capacitor_SMD:C_0603_1608Metric" H 6700 1000 50  0001 C CNN
F 3 "~" H 6700 1000 50  0001 C CNN
	1    6700 1000
	1    0    0    -1  
$EndComp
$Comp
L Device:C_Small C10
U 1 1 601E1ADB
P 7050 1000
F 0 "C10" H 7142 1046 50  0000 L CNN
F 1 "100nF" H 7142 955 50  0000 L CNN
F 2 "Capacitor_SMD:C_0603_1608Metric" H 7050 1000 50  0001 C CNN
F 3 "~" H 7050 1000 50  0001 C CNN
	1    7050 1000
	1    0    0    -1  
$EndComp
$Comp
L power:+5V #PWR0150
U 1 1 601E2D27
P 5100 750
F 0 "#PWR0150" H 5100 600 50  0001 C CNN
F 1 "+5V" H 5115 923 50  0000 C CNN
F 2 "" H 5100 750 50  0001 C CNN
F 3 "" H 5100 750 50  0001 C CNN
	1    5100 750 
	1    0    0    -1  
$EndComp
Wire Wire Line
	8400 1450 8400 1500
$Comp
L Device:C_Small C11
U 1 1 601F8337
P 7500 1000
F 0 "C11" H 7592 1046 50  0000 L CNN
F 1 "10uF" H 7592 955 50  0000 L CNN
F 2 "Capacitor_SMD:C_0603_1608Metric" H 7500 1000 50  0001 C CNN
F 3 "~" H 7500 1000 50  0001 C CNN
	1    7500 1000
	1    0    0    -1  
$EndComp
$Comp
L Device:C_Small C12
U 1 1 601F87AE
P 7850 1000
F 0 "C12" H 7942 1046 50  0000 L CNN
F 1 "100nF" H 7942 955 50  0000 L CNN
F 2 "Capacitor_SMD:C_0603_1608Metric" H 7850 1000 50  0001 C CNN
F 3 "~" H 7850 1000 50  0001 C CNN
	1    7850 1000
	1    0    0    -1  
$EndComp
$Comp
L Device:C_Small C13
U 1 1 601F928A
P 8300 1000
F 0 "C13" H 8392 1046 50  0000 L CNN
F 1 "10uF" H 8392 955 50  0000 L CNN
F 2 "Capacitor_SMD:C_0603_1608Metric" H 8300 1000 50  0001 C CNN
F 3 "~" H 8300 1000 50  0001 C CNN
	1    8300 1000
	1    0    0    -1  
$EndComp
$Comp
L Device:C_Small C14
U 1 1 601F98D5
P 8650 1000
F 0 "C14" H 8742 1046 50  0000 L CNN
F 1 "100nF" H 8742 955 50  0000 L CNN
F 2 "Capacitor_SMD:C_0603_1608Metric" H 8650 1000 50  0001 C CNN
F 3 "~" H 8650 1000 50  0001 C CNN
	1    8650 1000
	1    0    0    -1  
$EndComp
$Comp
L power:GND #PWR0151
U 1 1 6021FEF7
P 9000 1150
F 0 "#PWR0151" H 9000 900 50  0001 C CNN
F 1 "GND" H 9005 977 50  0000 C CNN
F 2 "" H 9000 1150 50  0001 C CNN
F 3 "" H 9000 1150 50  0001 C CNN
	1    9000 1150
	1    0    0    -1  
$EndComp
$Comp
L power:+5VA #PWR0152
U 1 1 60220D1F
P 7500 750
F 0 "#PWR0152" H 7500 600 50  0001 C CNN
F 1 "+5VA" H 7515 923 50  0000 C CNN
F 2 "" H 7500 750 50  0001 C CNN
F 3 "" H 7500 750 50  0001 C CNN
	1    7500 750 
	1    0    0    -1  
$EndComp
$Comp
L power:+3.3V #PWR0153
U 1 1 602218A8
P 8300 750
F 0 "#PWR0153" H 8300 600 50  0001 C CNN
F 1 "+3.3V" H 8315 923 50  0000 C CNN
F 2 "" H 8300 750 50  0001 C CNN
F 3 "" H 8300 750 50  0001 C CNN
	1    8300 750 
	1    0    0    -1  
$EndComp
Wire Wire Line
	5100 1100 5100 1150
Wire Wire Line
	5100 1150 5450 1150
Wire Wire Line
	5450 1100 5450 1150
Connection ~ 5450 1150
Wire Wire Line
	5450 1150 5900 1150
Wire Wire Line
	5900 1100 5900 1150
Connection ~ 5900 1150
Wire Wire Line
	5900 1150 6250 1150
Wire Wire Line
	6250 1100 6250 1150
Connection ~ 6250 1150
Wire Wire Line
	6250 1150 6700 1150
Wire Wire Line
	6700 1100 6700 1150
Connection ~ 6700 1150
Wire Wire Line
	6700 1150 7050 1150
Wire Wire Line
	7050 1100 7050 1150
Connection ~ 7050 1150
Wire Wire Line
	7050 1150 7500 1150
Wire Wire Line
	7500 1100 7500 1150
Connection ~ 7500 1150
Wire Wire Line
	7500 1150 7850 1150
Wire Wire Line
	7850 1100 7850 1150
Connection ~ 7850 1150
Wire Wire Line
	7850 1150 8300 1150
Wire Wire Line
	8300 1100 8300 1150
Connection ~ 8300 1150
Wire Wire Line
	8300 1150 8650 1150
Wire Wire Line
	8650 1100 8650 1150
Connection ~ 8650 1150
Wire Wire Line
	8650 1150 9000 1150
Wire Wire Line
	8300 750  8300 850 
Wire Wire Line
	8300 850  8650 850 
Wire Wire Line
	8650 850  8650 900 
Wire Wire Line
	8300 850  8300 900 
Connection ~ 8300 850 
Wire Wire Line
	7500 750  7500 850 
Wire Wire Line
	7500 850  7850 850 
Wire Wire Line
	7850 850  7850 900 
Wire Wire Line
	7500 850  7500 900 
Connection ~ 7500 850 
Wire Wire Line
	5100 750  5100 850 
Wire Wire Line
	5100 850  5450 850 
Wire Wire Line
	7050 850  7050 900 
Wire Wire Line
	5100 850  5100 900 
Connection ~ 5100 850 
Wire Wire Line
	5450 850  5450 900 
Connection ~ 5450 850 
Wire Wire Line
	5450 850  5900 850 
Wire Wire Line
	5900 850  5900 900 
Connection ~ 5900 850 
Wire Wire Line
	5900 850  6250 850 
Wire Wire Line
	6250 850  6250 900 
Connection ~ 6250 850 
Wire Wire Line
	6250 850  6700 850 
Wire Wire Line
	6700 850  6700 900 
Connection ~ 6700 850 
Wire Wire Line
	6700 850  7050 850 
$Comp
L Connector:Conn_01x02_Male J13
U 1 1 6024281C
P 10250 4150
F 0 "J13" H 10222 4032 50  0000 R CNN
F 1 "Power Led (Green)" H 10222 4123 50  0000 R CNN
F 2 "Connector_PinHeader_2.54mm:PinHeader_1x02_P2.54mm_Vertical" H 10250 4150 50  0001 C CNN
F 3 "~" H 10250 4150 50  0001 C CNN
	1    10250 4150
	-1   0    0    1   
$EndComp
$Comp
L Device:R R12
U 1 1 6024442B
P 9700 4150
F 0 "R12" V 9493 4150 50  0000 C CNN
F 1 "100R" V 9584 4150 50  0000 C CNN
F 2 "Resistor_SMD:R_0603_1608Metric" V 9630 4150 50  0001 C CNN
F 3 "~" H 9700 4150 50  0001 C CNN
	1    9700 4150
	0    1    1    0   
$EndComp
$Comp
L power:+5V #PWR0154
U 1 1 602457EC
P 9900 3950
F 0 "#PWR0154" H 9900 3800 50  0001 C CNN
F 1 "+5V" H 9915 4123 50  0000 C CNN
F 2 "" H 9900 3950 50  0001 C CNN
F 3 "" H 9900 3950 50  0001 C CNN
	1    9900 3950
	1    0    0    -1  
$EndComp
Wire Wire Line
	9900 3950 9900 4050
Wire Wire Line
	9900 4050 10050 4050
Wire Wire Line
	9850 4150 10050 4150
$Comp
L power:GND #PWR0155
U 1 1 60257211
P 9500 4250
F 0 "#PWR0155" H 9500 4000 50  0001 C CNN
F 1 "GND" H 9505 4077 50  0000 C CNN
F 2 "" H 9500 4250 50  0001 C CNN
F 3 "" H 9500 4250 50  0001 C CNN
	1    9500 4250
	1    0    0    -1  
$EndComp
Wire Wire Line
	9500 4250 9500 4150
Wire Wire Line
	9500 4150 9550 4150
$Comp
L Connector:Conn_01x02_Male J14
U 1 1 602DDBD3
P 10250 4800
F 0 "J14" H 10222 4682 50  0000 R CNN
F 1 "Connection Led (Blue)" H 10222 4773 50  0000 R CNN
F 2 "Connector_PinHeader_2.54mm:PinHeader_1x02_P2.54mm_Vertical" H 10250 4800 50  0001 C CNN
F 3 "~" H 10250 4800 50  0001 C CNN
	1    10250 4800
	-1   0    0    1   
$EndComp
$Comp
L Device:R R13
U 1 1 602DDBD9
P 9700 4800
F 0 "R13" V 9493 4800 50  0000 C CNN
F 1 "100R" V 9584 4800 50  0000 C CNN
F 2 "Resistor_SMD:R_0603_1608Metric" V 9630 4800 50  0001 C CNN
F 3 "~" H 9700 4800 50  0001 C CNN
	1    9700 4800
	0    1    1    0   
$EndComp
Wire Wire Line
	9900 4700 10050 4700
Wire Wire Line
	9850 4800 10050 4800
$Comp
L power:GND #PWR0156
U 1 1 602DDBE8
P 9500 4900
F 0 "#PWR0156" H 9500 4650 50  0001 C CNN
F 1 "GND" H 9505 4727 50  0000 C CNN
F 2 "" H 9500 4900 50  0001 C CNN
F 3 "" H 9500 4900 50  0001 C CNN
	1    9500 4900
	1    0    0    -1  
$EndComp
Wire Wire Line
	9500 4900 9500 4800
Wire Wire Line
	9500 4800 9550 4800
$Comp
L Connector:Conn_01x02_Male J12
U 1 1 60332EFD
P 10250 3550
F 0 "J12" H 10222 3432 50  0000 R CNN
F 1 "Standby Led (Red)" H 10222 3523 50  0000 R CNN
F 2 "Connector_PinHeader_2.54mm:PinHeader_1x02_P2.54mm_Vertical" H 10250 3550 50  0001 C CNN
F 3 "~" H 10250 3550 50  0001 C CNN
	1    10250 3550
	-1   0    0    1   
$EndComp
$Comp
L Device:R R11
U 1 1 60332F03
P 9700 3550
F 0 "R11" V 9493 3550 50  0000 C CNN
F 1 "100R" V 9584 3550 50  0000 C CNN
F 2 "Resistor_SMD:R_0603_1608Metric" V 9630 3550 50  0001 C CNN
F 3 "~" H 9700 3550 50  0001 C CNN
	1    9700 3550
	0    1    1    0   
$EndComp
Wire Wire Line
	9900 3350 9900 3450
Wire Wire Line
	9900 3450 10050 3450
Wire Wire Line
	9850 3550 10050 3550
$Comp
L power:GND #PWR0157
U 1 1 60332F12
P 9500 3650
F 0 "#PWR0157" H 9500 3400 50  0001 C CNN
F 1 "GND" H 9505 3477 50  0000 C CNN
F 2 "" H 9500 3650 50  0001 C CNN
F 3 "" H 9500 3650 50  0001 C CNN
	1    9500 3650
	1    0    0    -1  
$EndComp
Wire Wire Line
	9500 3650 9500 3550
Wire Wire Line
	9500 3550 9550 3550
$Comp
L power:+5VA #PWR0158
U 1 1 6037A5B2
P 9900 3350
F 0 "#PWR0158" H 9900 3200 50  0001 C CNN
F 1 "+5VA" H 9915 3523 50  0000 C CNN
F 2 "" H 9900 3350 50  0001 C CNN
F 3 "" H 9900 3350 50  0001 C CNN
	1    9900 3350
	1    0    0    -1  
$EndComp
Text GLabel 4300 3800 2    50   Input ~ 0
Status_Led
Wire Wire Line
	4050 3800 4300 3800
Text GLabel 9500 4550 0    50   Input ~ 0
Status_Led
Wire Wire Line
	9500 4550 9900 4550
Wire Wire Line
	9900 4550 9900 4700
$Comp
L Device:LED D1
U 1 1 603A8FFA
P 3500 5300
F 0 "D1" H 3493 5045 50  0000 C CNN
F 1 "Green" H 3493 5136 50  0000 C CNN
F 2 "LED_SMD:LED_0603_1608Metric" H 3500 5300 50  0001 C CNN
F 3 "~" H 3500 5300 50  0001 C CNN
	1    3500 5300
	-1   0    0    1   
$EndComp
$Comp
L power:GND #PWR0159
U 1 1 603AA951
P 4300 5350
F 0 "#PWR0159" H 4300 5100 50  0001 C CNN
F 1 "GND" H 4305 5177 50  0000 C CNN
F 2 "" H 4300 5350 50  0001 C CNN
F 3 "" H 4300 5350 50  0001 C CNN
	1    4300 5350
	1    0    0    -1  
$EndComp
$Comp
L Device:R R8
U 1 1 603ABAE2
P 4000 5300
F 0 "R8" V 3793 5300 50  0000 C CNN
F 1 "100R" V 3884 5300 50  0000 C CNN
F 2 "Resistor_SMD:R_0603_1608Metric" V 3930 5300 50  0001 C CNN
F 3 "~" H 4000 5300 50  0001 C CNN
	1    4000 5300
	0    1    1    0   
$EndComp
Wire Wire Line
	3650 5300 3850 5300
Wire Wire Line
	4150 5300 4300 5300
Wire Wire Line
	4300 5300 4300 5350
$Comp
L power:+5V #PWR0160
U 1 1 603C063F
P 3200 5250
F 0 "#PWR0160" H 3200 5100 50  0001 C CNN
F 1 "+5V" H 3215 5423 50  0000 C CNN
F 2 "" H 3200 5250 50  0001 C CNN
F 3 "" H 3200 5250 50  0001 C CNN
	1    3200 5250
	1    0    0    -1  
$EndComp
Wire Wire Line
	3200 5250 3200 5300
Wire Wire Line
	3200 5300 3350 5300
$Comp
L Device:LED D2
U 1 1 603CFB3B
P 3500 5650
F 0 "D2" H 3493 5395 50  0000 C CNN
F 1 "Red" H 3493 5486 50  0000 C CNN
F 2 "LED_SMD:LED_0603_1608Metric" H 3500 5650 50  0001 C CNN
F 3 "~" H 3500 5650 50  0001 C CNN
	1    3500 5650
	-1   0    0    1   
$EndComp
$Comp
L power:GND #PWR0161
U 1 1 603CFB41
P 4300 5700
F 0 "#PWR0161" H 4300 5450 50  0001 C CNN
F 1 "GND" H 4305 5527 50  0000 C CNN
F 2 "" H 4300 5700 50  0001 C CNN
F 3 "" H 4300 5700 50  0001 C CNN
	1    4300 5700
	1    0    0    -1  
$EndComp
$Comp
L Device:R R9
U 1 1 603CFB47
P 4000 5650
F 0 "R9" V 3793 5650 50  0000 C CNN
F 1 "100R" V 3884 5650 50  0000 C CNN
F 2 "Resistor_SMD:R_0603_1608Metric" V 3930 5650 50  0001 C CNN
F 3 "~" H 4000 5650 50  0001 C CNN
	1    4000 5650
	0    1    1    0   
$EndComp
Wire Wire Line
	3650 5650 3850 5650
Wire Wire Line
	4150 5650 4300 5650
Wire Wire Line
	4300 5650 4300 5700
Wire Wire Line
	3200 5600 3200 5650
Wire Wire Line
	3200 5650 3350 5650
$Comp
L power:+5VA #PWR0162
U 1 1 603DB188
P 3200 5600
F 0 "#PWR0162" H 3200 5450 50  0001 C CNN
F 1 "+5VA" H 3215 5773 50  0000 C CNN
F 2 "" H 3200 5600 50  0001 C CNN
F 3 "" H 3200 5600 50  0001 C CNN
	1    3200 5600
	1    0    0    -1  
$EndComp
Text GLabel 4350 1400 2    50   Input ~ 0
Status_Led_int
Wire Wire Line
	4050 1400 4350 1400
Text GLabel 3200 6050 0    50   Input ~ 0
Status_Led_int
$Comp
L Device:LED D3
U 1 1 603F73B3
P 3500 6050
F 0 "D3" H 3493 5795 50  0000 C CNN
F 1 "Blue" H 3493 5886 50  0000 C CNN
F 2 "LED_SMD:LED_0603_1608Metric" H 3500 6050 50  0001 C CNN
F 3 "~" H 3500 6050 50  0001 C CNN
	1    3500 6050
	-1   0    0    1   
$EndComp
$Comp
L power:GND #PWR0163
U 1 1 603F73B9
P 4300 6100
F 0 "#PWR0163" H 4300 5850 50  0001 C CNN
F 1 "GND" H 4305 5927 50  0000 C CNN
F 2 "" H 4300 6100 50  0001 C CNN
F 3 "" H 4300 6100 50  0001 C CNN
	1    4300 6100
	1    0    0    -1  
$EndComp
$Comp
L Device:R R10
U 1 1 603F73BF
P 4000 6050
F 0 "R10" V 3793 6050 50  0000 C CNN
F 1 "100R" V 3884 6050 50  0000 C CNN
F 2 "Resistor_SMD:R_0603_1608Metric" V 3930 6050 50  0001 C CNN
F 3 "~" H 4000 6050 50  0001 C CNN
	1    4000 6050
	0    1    1    0   
$EndComp
Wire Wire Line
	3650 6050 3850 6050
Wire Wire Line
	4150 6050 4300 6050
Wire Wire Line
	4300 6050 4300 6100
Wire Wire Line
	3200 6050 3350 6050
$EndSCHEMATC
